Homework 3
…
A lot of them still have filler words like of the, in the, patients with, and the, to the, and of prostate. It is not very specific, but we know that these phrases have been utilized a lot.

3. Calculate the TF-IDF value for each word-search term combination (here you want the search term to be the “document”). What are the 5 tokens from each search term with the highest TF-IDF value? How are the results different from the answers you got in question 1?

pubmed%>%
  unnest_tokens(text, abstract)%>%
  count(text, term)%>%
  bind_tf_idf(text, term, n)%>%
  arrange(desc(tf_idf))%>%
  group_by(term)%>%
  slice(1:5)

# A tibble: 25 × 6
# Groups:   term [5]
   text        term                n      tf   idf  tf_idf
   <chr>       <chr>           <int>   <dbl> <dbl>   <dbl>
 1 covid       covid            7275 0.0371  1.61  0.0597 
 2 pandemic    covid             800 0.00408 1.61  0.00657
 3 coronavirus covid             647 0.00330 1.61  0.00531
 4 sars        covid             372 0.00190 1.61  0.00305
 5 cov         covid             334 0.00170 1.61  0.00274
 6 cf          cystic fibrosis   625 0.0127  0.916 0.0117 
 7 fibrosis    cystic fibrosis   867 0.0176  0.511 0.00901
 8 cystic      cystic fibrosis   862 0.0175  0.511 0.00896
 9 cftr        cystic fibrosis    86 0.00175 1.61  0.00282
10 sweat       cystic fibrosis    83 0.00169 1.61  0.00272
# ℹ 15 more rows
…
